Wrangling ELAN files to investigate morphology
…
Creating a word-deliminated data frame for the corpus

# Create word_id that groups consecutive rows belonging to the same word
word_corpus_df <- corpus_df |>
  filter(tier_type %in% c("wd","mb","gl")) |>
  mutate(word_id = paste0("w", cumsum(tier_type == "wd"))) |>
  group_by(word_id) |>
  arrange(event_local_id, .by_group = TRUE)

# Display word-morpheme-gloss structure
word_corpus_df |>
  select(1:8, last_col()) |>
  head(50)

# A tibble: 50 × 9
# Groups:   word_id [14]
   file   tier    id content   tier_name tier_type   id_ tier_ref word_id
   <chr> <int> <int> <chr>     <chr>     <chr>     <int> <chr>    <chr>  
 1 1         5     1 <p:>      mb@Asu    mb         1750 wd@Asu   w1     
 2 1         6     1 <p:>      gl@Asu    gl         2764 mb@Asu   w1     
 3 1         4     1 <p:>      wd@Asu    wd          829 ref@Asu  w1     
 4 1         5    10 vahara    mb@Asu    mb         1759 wd@Asu   w10    
 5 1         6    10 little:PL gl@Asu    gl         2773 mb@Asu   w10    
 6 1         4    10 vahara    wd@Asu    wd          838 ref@Asu  w10    
 7 1         5   110 a         mb@Asu    mb         1859 wd@Asu   w100   
 8 1         6   110 ART       gl@Asu    gl         2873 mb@Asu   w100   
 9 1         4   100 a         wd@Asu    wd          928 ref@Asu  w100   
10 2         4    79 teo       wd@Gol    wd          277 ref@Gol  w1000  
# ℹ 40 more rows
…
# Calculate frequency of affix-gloss pairs
affix_corpus_freq <- affixes_glosses_corpus |>
  count(morpheme, gloss, sort = TRUE)

# Display affix frequencies
affix_corpus_freq

# A tibble: 42 × 3
   morpheme gloss               n
   <chr>    <chr>           <int>
 1 e-       H-                210
 2 vaa-     CAUS-              78
 3 sina-    mother-            44
 4 va-      ADVR-              43
 5 va-      MULT-              29
 6 ta-      ACAUS-             28
 7 tama-    father-            22
 8 koma-    stomach|inside-    20
 9 moo-     leg-               13
10 hena-    name-              11
# ℹ 32 more rows
…
# Combine remaining morphemes and glosses
affix_gloss_roots_corpus_summary <- affix_gloss_roots_corpus |>
  summarise(
    roots = paste(content[tier_type == "mb"], collapse = ""),
    glosses = paste(content[tier_type == "gl"], collapse = "")
  ) |> count(roots, glosses, sort = TRUE)

affix_gloss_roots_corpus_summary

# A tibble: 38 × 3
   roots  glosses      n
   <chr>  <chr>    <int>
 1 sun    stand       10
 2 tii    be.there     9
 3 hae    board        6
 4 tavus  come.out     5
 5 kavara finished     4
 6 raka   dry          4
 7 kuu    fall         3
 8 tavusu come.out     3
 9 naabu  fear         2
10 nao    go           2
# ℹ 28 more rows
…
